verilog/counter.vcd
$date
	Sun Apr 20 19:19:17 2025
$end
$version
	Icarus Verilog
$end
$timescale
	1s
$end
$scope module counter $end
$var wire 3 ! sum [2:0] $end
$var wire 1 " g $end
$var wire 1 # f $end
$var wire 1 $ e $end
$var wire 1 % d $end
$var wire 4 & count [3:0] $end
$var wire 1 ' c $end
$var wire 1 ( b $end
$var wire 1 ) a $end
$var reg 1 * clk $end
$var reg 1 + reset $end
$var reg 2 , x [1:0] $end
$var reg 2 - y [1:0] $end
$scope module uut $end
$var wire 1 * clk $end
$var wire 1 + reset $end
$var wire 2 . x [1:0] $end
$var wire 2 / y [1:0] $end
$var reg 1 ) a $end
$var reg 1 ( b $end
$var reg 1 ' c $end
$var reg 4 0 count [3:0] $end
$var reg 1 % d $end
$var reg 1 $ e $end
$var reg 1 # f $end
$var reg 1 " g $end
$var reg 3 1 sum [2:0] $end
$scope function add $end
$var reg 3 2 add [2:0] $end
$var reg 2 3 x [1:0] $end
$var reg 2 4 y [1:0] $end
$upscope $end
$upscope $end
$upscope $end
$enddefinitions $end
#0
$dumpvars
bx 4
bx 3
bx 2
bx 1
b0 0
b10 /
b1 .
b10 -
b1 ,
1+
0*
0)
0(
0'
b0 &
0%
0$
0#
0"
bx !
$end
#5
1*
#10
0*
0+
#15
b1 !
b1 1
b1 2
b0 3
b1 4
1'
1(
b1 &
b1 0
1*
#20
0*
#25
b10 !
b10 1
b10 2
b1 3
1"
1$
1%
0'
1)
b10 &
b10 0
1*
#30
0*
#35
0$
1'
b11 &
b11 0
1*
#40
0*
#45
b1 !
b1 1
b1 2
b0 3
1#
0%
0)
b100 &
b100 0
1*
#50
0*
#55
b1 3
b0 4
1%
0(
1)
b101 &
b101 0
1*
#60
0*
#65
1$
b110 &
b110 0
1*
#70
0*
#75
b10 !
b10 1
b10 2
b1 4
0"
0#
0$
0%
1(
b111 &
b111 0
1*
#80
0*
#85
1"
1#
1$
1%
b1000 &
b1000 0
1*
#90
0*
#95
0$
0%
b1001 &
b1001 0
1*
#100
0*
#105
0"
1$
1%
b0 &
b0 0
1*
#110
0#
0$
0%
0'
0(
0)
0*
1+
#115
1*
#120
0*
0+
#125
b1 !
b1 1
b1 2
b0 3
1'
1(
b1 &
b1 0
1*
#130
0*
#135
b10 !
b10 1
b10 2
b1 3
1"
1$
1%
0'
1)
b10 &
b10 0
1*
#140
0*
#145
0$
1'
b11 &
b11 0
1*
#150
0*
#155
b1 !
b1 1
b1 2
b0 3
1#
0%
0)
b100 &
b100 0
1*
#160
0*
#165
b1 3
b0 4
1%
0(
1)
b101 &
b101 0
1*
#170
0*
#175
1$
b110 &
b110 0
1*
#180
0*
#185
b10 !
b10 1
b10 2
b1 4
0"
0#
0$
0%
1(
b111 &
b111 0
1*
#190
0*
#195
1"
1#
1$
1%
b1000 &
b1000 0
1*
#200
0*
#205
0$
0%
b1001 &
b1001 0
1*
#210
0*
#215
0"
1$
1%
b0 &
b0 0
1*
#220
0*
#225
b1 !
b1 1
b1 2
b0 3
0#
0$
0%
0)
b1 &
b1 0
1*
